<?xml version="1.0" encoding="UTF-8" standalone="no"?>
<svg
   viewBox="0 0 48 48"
   version="1.1"
   id="svg10"
   sodipodi:docname="manjaro.svg"
   inkscape:version="1.1.1 (3bf5ae0d25, 2021-09-20)"
   xmlns:inkscape="http://www.inkscape.org/namespaces/inkscape"
   xmlns:sodipodi="http://sodipodi.sourceforge.net/DTD/sodipodi-0.dtd"
   xmlns="http://www.w3.org/2000/svg"
   xmlns:svg="http://www.w3.org/2000/svg">
  <sodipodi:namedview
     id="namedview12"
     pagecolor="#ffffff"
     bordercolor="#999999"
     borderopacity="1"
     inkscape:pageshadow="0"
     inkscape:pageopacity="0"
     inkscape:pagecheckerboard="0"
     showgrid="false"
     inkscape:zoom="8.5833333"
     inkscape:cx="57.728155"
     inkscape:cy="14.563107"
     inkscape:window-width="1920"
     inkscape:window-height="1010"
     inkscape:window-x="0"
     inkscape:window-y="34"
     inkscape:window-maximized="1"
     inkscape:current-layer="svg10" />
  <defs
     id="defs2">
    <lineargradient
       y1="545.8"
       x2="0"
       y2="517.8"
       gradientUnits="userSpaceOnUse">
      <stop
         stop-color="#3889e9" />
      <stop
         offset="1"
         stop-color="#5ea5fb" />
    </lineargradient>
    <lineargradient
       id="0"
       gradientUnits="userSpaceOnUse"
       y1="545.14"
       x2="0"
       y2="518.14">
      <stop
         stop-color="#00a661" />
      <stop
         offset="1"
         stop-color="#37ce97" />
    </lineargradient>
    <lineargradient
       x1="25.425"
       y1="1043.02"
       x2="23.12"
       y2="1015.56"
       gradientUnits="userSpaceOnUse">
      <stop
         stop-color="#dfe2e3" />
      <stop
         offset="1"
         stop-color="#fdfdfe" />
    </lineargradient>
  </defs>
  <circle
     style="fill:#f9f9f9;stroke-width:0.553106;stroke-linejoin:bevel"
     id="path36"
     cx="23.883745"
     cy="23.981827"
     r="23.938385" />
  <circle
     r="23.999931"
     cy="24.002649"
     cx="23.977102"
     fill="url(#0)"
     id="circle4"
     style="stroke-width:1.71428" />
  <path
     d="m 12.666686,11.525587 v 10.647041 h 6.654916 v -3.993156 h 7.98528 V 11.524555 H 17.98711 Z m 15.97056,0 v 26.617601 h 6.654917 V 11.525587 Z m -7.98528,7.985281 v 18.629224 h 6.654916 V 19.510868 Z m -7.98528,3.993156 v 14.640197 h 6.654916 V 23.504024 Z"
     fill="#ffffff"
     fill-opacity="0.86"
     color="#000000"
     id="path6"
     style="stroke-width:1.03209;fill:#5fd35f" />
</svg>
