<?xml version="1.0" encoding="UTF-8" standalone="no"?>
<!-- Generator: Adobe Illustrator 19.0.0, SVG Export Plug-In . SVG Version: 6.00 Build 0)  -->

<svg
   version="1.1"
   id="Layer_1"
   x="0px"
   y="0px"
   viewBox="0 0 540.70091 540.70091"
   xml:space="preserve"
   sodipodi:docname="ship.rocket.svg"
   width="540.70093"
   height="540.70093"
   inkscape:version="1.1.1 (3bf5ae0d25, 2021-09-20)"
   xmlns:inkscape="http://www.inkscape.org/namespaces/inkscape"
   xmlns:sodipodi="http://sodipodi.sourceforge.net/DTD/sodipodi-0.dtd"
   xmlns="http://www.w3.org/2000/svg"
   xmlns:svg="http://www.w3.org/2000/svg"><defs
   id="defs59" /><sodipodi:namedview
   id="namedview57"
   pagecolor="#ffffff"
   bordercolor="#999999"
   borderopacity="1"
   inkscape:pageshadow="0"
   inkscape:pageopacity="0"
   inkscape:pagecheckerboard="0"
   showgrid="false"
   fit-margin-top="0"
   fit-margin-left="0"
   fit-margin-right="0"
   fit-margin-bottom="0"
   inkscape:zoom="1.2773669"
   inkscape:cx="232.90099"
   inkscape:cy="237.98958"
   inkscape:window-width="1920"
   inkscape:window-height="1010"
   inkscape:window-x="0"
   inkscape:window-y="34"
   inkscape:window-maximized="1"
   inkscape:current-layer="Layer_1" />
<g
   id="g24"
   transform="rotate(-45.381464,329.9143,147.70216)">
	<polygon
   style="fill:#f7cf52"
   points="92.95,218.062 162.25,287.362 145.55,318.202 62.11,234.762 "
   id="polygon2" />
	<path
   style="fill:#76cdce"
   d="m 250.693,172.74 c -1.796,0.269 -3.642,0.403 -5.523,0.403 -20.987,0 -38,-17.013 -38,-38 0,-20.987 17.013,-38 38,-38 1.881,0 3.726,0.134 5.523,0.403 18.371,2.673 32.477,18.491 32.477,37.597 0,19.106 -14.107,34.924 -32.477,37.597 z"
   id="path4" />
	<polygon
   style="fill:#f7cf52"
   points="88.54,119.242 163.22,109.612 73.86,198.972 18.98,188.802 "
   id="polygon6" />
	<polygon
   style="fill:#f7cf52"
   points="181.34,306.452 270.71,217.092 261.07,291.772 191.51,361.342 "
   id="polygon8" />
	<path
   style="fill:#008db3"
   d="m 320.56,59.752 c 14.27,14.26 32.44,22.19 51.08,23.81 -9.34,30.47 -26.03,58.62 -49.14,81.73 l -51.79,51.8 -89.37,89.36 -19.09,-19.09 -69.3,-69.3 -19.09,-19.09 89.36,-89.36 h 0.01 l 51.79,-51.8 c 23.12,-23.12 51.27,-39.81 81.74,-49.14 1.61,18.64 9.54,36.81 23.8,51.08 z m -48.52,102.26 c 14.84,-14.84 14.84,-38.9 0,-53.74 -14.84,-14.84 -38.9,-14.84 -53.74,0 -14.84,14.84 -14.84,38.9 0,53.74 14.84,14.84 38.9,14.84 53.74,0 z"
   id="path10" />
	<path
   style="fill:#f7cf52"
   d="m 378.82,1.492 c 3.45,27.92 0.86,55.86 -7.18,82.07 -18.64,-1.62 -36.81,-9.55 -51.08,-23.81 -14.26,-14.27 -22.19,-32.44 -23.8,-51.08 26.22,-8.04 54.15,-10.63 82.06,-7.18 z"
   id="path12" />
	
		<rect
   x="45.064999"
   y="276.16199"
   transform="matrix(-0.7071,-0.7071,0.7071,-0.7071,-143.0177,599.0829)"
   style="fill:#f4581b"
   width="15"
   height="105.999"
   id="rect14" />
	
		<rect
   x="71.285004"
   y="299.035"
   transform="matrix(-0.7071,-0.7071,0.7071,-0.7071,-108.7171,642.8744)"
   style="fill:#f4581b"
   width="15"
   height="89.836998"
   id="rect16" />
	
		<rect
   x="30.271999"
   y="258.02301"
   transform="matrix(-0.7071,-0.7071,0.7071,-0.7071,-149.7311,543.8623)"
   style="fill:#f4581b"
   width="15"
   height="89.836998"
   id="rect18" />
	<g
   id="g22">
		<path
   style="fill:#96e0de"
   d="M 250.693,172.74 V 97.546 c 18.371,2.673 32.477,18.491 32.477,37.597 0,19.106 -14.107,34.924 -32.477,37.597 z"
   id="path20" />
	</g>
</g>
<g
   id="g26"
   transform="translate(71.960434,86.48835)">
</g>
<g
   id="g28"
   transform="translate(71.960434,86.48835)">
</g>
<g
   id="g30"
   transform="translate(71.960434,86.48835)">
</g>
<g
   id="g32"
   transform="translate(71.960434,86.48835)">
</g>
<g
   id="g34"
   transform="translate(71.960434,86.48835)">
</g>
<g
   id="g36"
   transform="translate(71.960434,86.48835)">
</g>
<g
   id="g38"
   transform="translate(71.960434,86.48835)">
</g>
<g
   id="g40"
   transform="translate(71.960434,86.48835)">
</g>
<g
   id="g42"
   transform="translate(71.960434,86.48835)">
</g>
<g
   id="g44"
   transform="translate(71.960434,86.48835)">
</g>
<g
   id="g46"
   transform="translate(71.960434,86.48835)">
</g>
<g
   id="g48"
   transform="translate(71.960434,86.48835)">
</g>
<g
   id="g50"
   transform="translate(71.960434,86.48835)">
</g>
<g
   id="g52"
   transform="translate(71.960434,86.48835)">
</g>
<g
   id="g54"
   transform="translate(71.960434,86.48835)">
</g>
</svg>
